id,name
110008,Maria_Joao
524596,Guinga
2232651,Emile_Parisien
946961,Vincent_Peirani
303707,Gerardo_Di_Giusto
1288069,Leo_Genovese
378001,Billy_Harper
1325039,David_Weiss
152684,Stanley_Cowell
258511,Cecil_Mc_Bee
252742,Billy_Hart
985211,Dado_Moroni
3222601,Jarry_Singla
306965,Ramesh_Shotham
850676,Christian_Ramond
2101019,Melissa_Aldana
369024,Tony_Malaby
222600,William_Parker
726319,Ben_Van_den_Dungen
65744,Donald_Harrison
1005555,Riccardo_Fioravanti
695581,Stefano_Bagnoli